<?xml version="1.0" encoding="UTF-8"?>
<svg width="100px" height="100px" viewBox="0 0 100 100" version="1.1" xmlns="http://www.w3.org/2000/svg" xmlns:xlink="http://www.w3.org/1999/xlink">
    <!-- Generator: Sketch 52.2 (67145) - http://www.bohemiancoding.com/sketch -->
    <title>Team</title>
    <desc>Created with Sketch.</desc>
    <g id="Page-1" stroke="none" stroke-width="1" fill="none" fill-rule="evenodd">
        <g id="Simple-Landing-Page" transform="translate(-750.000000, -868.000000)" fill="#4A4A4A">
            <g id="Three-Assets" transform="translate(280.000000, 868.000000)">
                <g id="Collaborative" transform="translate(390.000000, 0.000000)">
                    <g id="Team" transform="translate(80.000000, 0.000000)">
                        <path d="M90.7484909,81.5503018 C92.3430584,80.0796781 93.3609658,77.9905433 93.3609658,75.6547284 L93.3609658,72.4354125 C93.3609658,67.9977867 89.7503018,64.3871227 85.3126761,64.3871227 C81.4267606,64.3871227 78.1752515,67.1575453 77.4263581,70.8257545 L72.1390342,70.8257545 C71.4726358,68.9567404 69.7018109,67.6064386 67.6064386,67.6064386 C65.5110664,67.6064386 63.7402414,68.9567404 63.0738431,70.8257545 L57.7865191,70.8257545 C57.1444668,67.6770624 54.6583501,65.1919517 51.510664,64.5496982 L51.510664,60.9390342 C54.2802817,60.2199195 56.3396378,57.721328 56.3396378,54.7291751 L57.9492958,54.7291751 C58.8390342,54.7291751 59.5589537,54.0100604 59.5589537,53.1195171 L59.5589537,48.2913481 L62.7782696,48.2913481 L62.7782696,45.0720322 L59.5589537,45.0720322 L59.5589537,45.0547284 C59.5589537,41.9752515 61.0185111,38.9484909 63.5633803,36.7565392 C68.1778672,32.7756539 70.8257545,27.0066398 70.8257545,20.927163 C70.8257545,15.178672 68.5408451,9.81830986 64.394165,5.83420523 C60.2490946,1.8501006 54.7700201,-0.229577465 49.0380282,0.0205231388 C38.172837,0.458148893 29.1734406,9.6665996 28.9792757,20.5458753 C28.8678068,26.7040241 31.4645875,32.5696177 36.1026157,36.6394366 C38.655332,38.8762575 40.1392354,41.9368209 40.2265594,45.0720322 L37.0237425,45.0720322 L37.0237425,48.2913481 L40.2430584,48.2913481 L40.2430584,53.1195171 C40.2430584,54.0100604 40.962173,54.7291751 41.8527163,54.7291751 L43.4623742,54.7291751 C43.4623742,57.721328 45.5207243,60.2199195 48.2913481,60.9390342 L48.2913481,64.5496982 C45.1426559,65.1919517 42.6575453,67.6770624 42.0144869,70.8257545 L36.7273642,70.8257545 C36.0609658,68.9567404 34.2901408,67.6064386 32.1955734,67.6064386 C30.0993964,67.6064386 28.3285714,68.9567404 27.6619718,70.8257545 L22.3748491,70.8257545 C21.6257545,67.1575453 18.3758551,64.3871227 14.489336,64.3871227 C10.0509054,64.3871227 6.44104628,67.9977867 6.44104628,72.4354125 L6.44104628,75.6547284 C6.44104628,77.9905433 7.45794769,80.0796781 9.0527163,81.5503018 C3.75211268,83.7054326 0.0032193159,88.9044266 0.0032193159,94.9698189 L0.0032193159,98.1891348 C0.0032193159,99.0796781 0.722334004,99.7987928 1.61207243,99.7987928 L27.3665996,99.7987928 C28.256338,99.7987928 28.9762575,99.0796781 28.9762575,98.1891348 L28.9762575,94.9698189 C28.9762575,88.9044266 25.2255533,83.7054326 19.9249497,81.5503018 C21.5197183,80.0796781 22.5376258,77.9905433 22.5376258,75.6547284 L22.5376258,74.0450704 L27.6619718,74.0450704 C28.3285714,75.9140845 30.0993964,77.2643863 32.1955734,77.2643863 C34.2901408,77.2643863 36.0609658,75.9140845 36.7273642,74.0450704 L41.8527163,74.0450704 L41.8527163,75.6547284 C41.8527163,77.9905433 42.8696177,80.0796781 44.4643863,81.5503018 C39.1639839,83.7054326 35.4140845,88.9044266 35.4140845,94.9698189 L35.4140845,98.1891348 C35.4140845,99.0796781 36.1331992,99.7987928 37.0237425,99.7987928 L62.7782696,99.7987928 C63.668008,99.7987928 64.3879276,99.0796781 64.3879276,98.1891348 L64.3879276,94.9698189 C64.3879276,88.9044266 60.6372233,83.7054326 55.3366197,81.5503018 C56.9313883,80.0796781 57.9492958,77.9905433 57.9492958,75.6547284 L57.9492958,74.0450704 L63.0738431,74.0450704 C63.7402414,75.9140845 65.5110664,77.2643863 67.6064386,77.2643863 C69.7018109,77.2643863 71.4726358,75.9140845 72.1390342,74.0450704 L77.2643863,74.0450704 L77.2643863,75.6547284 C77.2643863,77.9905433 78.2814889,80.0796781 79.8760563,81.5503018 C74.5756539,83.7054326 70.8257545,88.9044266 70.8257545,94.9698189 L70.8257545,98.1891348 C70.8257545,99.0796781 71.5448692,99.7987928 72.4354125,99.7987928 L98.1899396,99.7987928 C99.0788732,99.7987928 99.7987928,99.0796781 99.7987928,98.1891348 L99.7987928,94.9698189 C99.7987928,88.9044266 96.0488934,83.7054326 90.7484909,81.5503018 Z M25.7569416,94.9698189 L25.7569416,96.5794769 L22.5376258,96.5794769 L22.5376258,93.360161 L19.3183099,93.360161 L19.3183099,96.5794769 L9.66036217,96.5794769 L9.66036217,93.360161 L6.44104628,93.360161 L6.44104628,96.5794769 L3.22173038,96.5794769 L3.22173038,94.9698189 C3.22173038,88.7583501 8.27706237,83.7022133 14.489336,83.7022133 C20.7008048,83.7022133 25.7569416,88.7583501 25.7569416,94.9698189 Z M9.66036217,75.6547284 L9.66036217,72.4354125 C9.66036217,69.7732394 11.8263581,67.6064386 14.489336,67.6064386 C17.1513078,67.6064386 19.3183099,69.7732394 19.3183099,72.4354125 L19.3183099,75.6547284 C19.3183099,78.3167002 17.1513078,80.4837022 14.489336,80.4837022 C11.8263581,80.4837022 9.66036217,78.3167002 9.66036217,75.6547284 Z M32.1955734,74.0450704 C31.3066398,74.0450704 30.5859155,73.3243461 30.5859155,72.4354125 C30.5859155,71.5472837 31.3066398,70.8257545 32.1955734,70.8257545 C33.0837022,70.8257545 33.8044266,71.5472837 33.8044266,72.4354125 C33.8044266,73.3243461 33.0837022,74.0450704 32.1955734,74.0450704 Z M38.2239437,34.2177062 C34.2995976,30.7752515 32.1036217,25.8126761 32.1985915,20.6018109 C32.3645875,11.3973843 39.9758551,3.60684105 49.1668008,3.23581489 C54.077666,3.05734406 58.6573441,4.78812877 62.1627767,8.15674044 C65.6736419,11.5261569 67.6064386,16.0635815 67.6064386,20.927163 C67.6064386,26.0696177 65.3663984,30.950503 61.4609658,34.3160966 C58.2062374,37.1235412 56.3396378,41.0368209 56.3396378,45.0547284 L56.3396378,45.0720322 L43.4458753,45.0720322 C43.3585513,41.0108652 41.4754527,37.067002 38.2239437,34.2177062 Z M43.4623742,51.5098592 L56.3396378,51.5098592 L56.3396378,48.2913481 L43.4623742,48.2913481 L43.4623742,51.5098592 Z M46.6816901,54.7291751 L53.1203219,54.7291751 C53.1203219,56.5046278 51.6756539,57.9484909 49.901006,57.9484909 C48.1255533,57.9484909 46.6816901,56.5046278 46.6816901,54.7291751 Z M61.1686117,94.9698189 L61.1686117,96.5794769 L57.9492958,96.5794769 L57.9492958,93.360161 L54.7299799,93.360161 L54.7299799,96.5794769 L45.0720322,96.5794769 L45.0720322,93.360161 L41.8527163,93.360161 L41.8527163,96.5794769 L38.6334004,96.5794769 L38.6334004,94.9698189 C38.6334004,88.7583501 43.6887324,83.7022133 49.901006,83.7022133 C56.1124748,83.7022133 61.1686117,88.7583501 61.1686117,94.9698189 Z M45.0720322,75.6547284 L45.0720322,72.4354125 C45.0720322,69.7732394 47.2380282,67.6064386 49.901006,67.6064386 C52.5629779,67.6064386 54.7299799,69.7732394 54.7299799,72.4354125 L54.7299799,75.6547284 C54.7299799,78.3167002 52.5629779,80.4837022 49.901006,80.4837022 C47.2380282,80.4837022 45.0720322,78.3167002 45.0720322,75.6547284 Z M67.6064386,74.0450704 C66.717505,74.0450704 65.9975855,73.3243461 65.9975855,72.4354125 C65.9975855,71.5472837 66.717505,70.8257545 67.6064386,70.8257545 C68.4945674,70.8257545 69.2160966,71.5472837 69.2160966,72.4354125 C69.2160966,73.3243461 68.4945674,74.0450704 67.6064386,74.0450704 Z M80.4837022,75.6547284 L80.4837022,72.4354125 C80.4837022,69.7732394 82.6498994,67.6064386 85.3126761,67.6064386 C87.9746479,67.6064386 90.1416499,69.7732394 90.1416499,72.4354125 L90.1416499,75.6547284 C90.1416499,78.3167002 87.9746479,80.4837022 85.3126761,80.4837022 C82.6498994,80.4837022 80.4837022,78.3167002 80.4837022,75.6547284 Z M96.5802817,96.5794769 L93.3609658,96.5794769 L93.3609658,93.360161 L90.1416499,93.360161 L90.1416499,96.5794769 L80.4837022,96.5794769 L80.4837022,93.360161 L77.2643863,93.360161 L77.2643863,96.5794769 L74.0450704,96.5794769 L74.0450704,94.9698189 C74.0450704,88.7583501 79.1004024,83.7022133 85.3126761,83.7022133 C91.5241449,83.7022133 96.5802817,88.7583501 96.5802817,94.9698189 L96.5802817,96.5794769 Z" id="Fill-1"></path>
                        <polygon id="Fill-4" points="46.6816901 41.8527163 53.1203219 41.8527163 53.1203219 38.6334004 46.6816901 38.6334004"></polygon>
                        <path d="M48.2913481,28.8126761 L48.2913481,32.1947686 L51.510664,32.1947686 L51.510664,28.8126761 C52.5356137,28.6036217 53.4889336,28.1949698 54.3321932,27.6346076 L56.8112676,30.1134809 L59.0865191,27.8374245 L56.6084507,25.3583501 C57.168008,24.5150905 57.57666,23.5623742 57.7865191,22.5368209 L61.1686117,22.5368209 L61.1686117,19.317505 L57.7865191,19.317505 C57.57666,18.2917505 57.168008,17.3392354 56.6084507,16.4957746 L59.0865191,14.0177062 L56.8112676,11.7414487 L54.3321932,14.2205231 C53.4889336,13.660161 52.5356137,13.2513078 51.510664,13.0422535 L51.510664,9.66036217 L48.2913481,9.66036217 L48.2913481,13.0422535 C47.2655936,13.2513078 46.3130785,13.660161 45.4688129,14.2205231 L42.9899396,11.7414487 L40.7146881,14.0177062 L43.1935614,16.4957746 C42.6331992,17.3392354 42.2243461,18.2917505 42.0144869,19.317505 L38.6334004,19.317505 L38.6334004,22.5368209 L42.0144869,22.5368209 C42.2243461,23.5623742 42.6331992,24.5150905 43.1935614,25.3583501 L40.7146881,27.8374245 L42.9899396,30.1134809 L45.4688129,27.6346076 C46.3130785,28.1949698 47.2655936,28.6036217 48.2913481,28.8126761 Z M49.901006,16.098994 C52.5629779,16.098994 54.7299799,18.2649899 54.7299799,20.927163 C54.7299799,23.5891348 52.5629779,25.7561368 49.901006,25.7561368 C47.2380282,25.7561368 45.0720322,23.5891348 45.0720322,20.927163 C45.0720322,18.2649899 47.2380282,16.098994 49.901006,16.098994 Z" id="Fill-5"></path>
                    </g>
                </g>
            </g>
        </g>
    </g>
</svg>